C:\Anca\VVTA\Lab\Proiecte_1\Angajati\src\main\java\AngajatiApp\view\EmployeeView.java
C:\Anca\VVTA\Lab\Proiecte_1\Angajati\src\main\java\AngajatiApp\model\SalaryCriteria.java
C:\Anca\VVTA\Lab\Proiecte_1\Angajati\src\main\java\AngajatiApp\validator\EmployeeValidator.java
C:\Anca\VVTA\Lab\Proiecte_1\Angajati\src\main\java\AngajatiApp\main\StartApp.java
C:\Anca\VVTA\Lab\Proiecte_1\Angajati\src\main\java\AngajatiApp\model\AgeCriteria.java
C:\Anca\VVTA\Lab\Proiecte_1\Angajati\src\main\java\AngajatiApp\repository\EmployeeRepositoryInterface.java
C:\Anca\VVTA\Lab\Proiecte_1\Angajati\src\main\java\AngajatiApp\repository\EmployeeImpl.java
C:\Anca\VVTA\Lab\Proiecte_1\Angajati\src\main\java\AngajatiApp\model\Employee.java
C:\Anca\VVTA\Lab\Proiecte_1\Angajati\src\main\java\AngajatiApp\controller\DidacticFunction.java
C:\Anca\VVTA\Lab\Proiecte_1\Angajati\src\main\java\AngajatiApp\controller\EmployeeController.java
C:\Anca\VVTA\Lab\Proiecte_1\Angajati\src\main\java\AngajatiApp\repository\EmployeeMock.java
C:\Anca\VVTA\Lab\Proiecte_1\Angajati\src\main\java\AngajatiApp\validator\EmployeeException.java
